; Engine configuration file.
; It's best edited using the editor UI and not directly,
; since the parameters that go here are not all obvious.
;
; Format:
;   [section] ; section goes between []
;   param=value ; assign values to parameters

config_version=4

_global_script_classes=[  ]
_global_script_class_icons={

}

[application]

config/name="graphics_editor"
run/main_scene="res://Data/Main.tscn"
config/icon="res://icon.png"

[display]

window/size/width=1020
window/vsync/use_vsync=false
window/stretch/mode="2d"
window/stretch/aspect="expand"

[input]

ui_left_click={
"deadzone": 0.5,
"events": [ Object(InputEventMouseButton,"resource_local_to_scene":false,"resource_name":"","device":0,"alt":false,"shift":false,"control":false,"meta":false,"command":false,"button_mask":0,"position":Vector2( 0, 0 ),"global_position":Vector2( 0, 0 ),"factor":1.0,"button_index":1,"pressed":false,"doubleclick":false,"script":null)
 ]
}
zoom+={
"deadzone": 0.5,
"events": [ Object(InputEventKey,"resource_local_to_scene":false,"resource_name":"","device":0,"alt":false,"shift":false,"control":true,"meta":false,"command":true,"pressed":false,"scancode":61,"unicode":0,"echo":false,"script":null)
 ]
}
zoom-={
"deadzone": 0.5,
"events": [ Object(InputEventKey,"resource_local_to_scene":false,"resource_name":"","device":0,"alt":false,"shift":false,"control":true,"meta":false,"command":true,"pressed":false,"scancode":45,"unicode":0,"echo":false,"script":null)
 ]
}
zoom_default={
"deadzone": 0.5,
"events": [ Object(InputEventKey,"resource_local_to_scene":false,"resource_name":"","device":0,"alt":false,"shift":false,"control":true,"meta":false,"command":true,"pressed":false,"scancode":48,"unicode":0,"echo":false,"script":null)
 ]
}
move={
"deadzone": 0.5,
"events": [ Object(InputEventMouseButton,"resource_local_to_scene":false,"resource_name":"","device":0,"alt":false,"shift":false,"control":false,"meta":false,"command":false,"button_mask":0,"position":Vector2( 0, 0 ),"global_position":Vector2( 0, 0 ),"factor":1.0,"button_index":3,"pressed":false,"doubleclick":false,"script":null)
 ]
}
to_img={
"deadzone": 0.5,
"events": [ Object(InputEventKey,"resource_local_to_scene":false,"resource_name":"","device":0,"alt":false,"shift":true,"control":true,"meta":false,"command":true,"pressed":false,"scancode":41,"unicode":0,"echo":false,"script":null)
 ]
}

[rendering]

environment/default_environment="res://default_env.tres"
